<svg xmlns="http://www.w3.org/2000/svg" width="20" height="36" viewBox="0 0 20 36">
  <defs>
    <style>
      .cls-1 {
        fill: #90aac8;
        fill-rule: evenodd;
      }
    </style>
  </defs>
  <path id="返回" class="cls-1" d="M676.153,452L661,436.482,663.42,434,681,452l-2.422,2.482h0L663.42,470,661,467.518Z" transform="translate(-661 -434)"/>
</svg>
