<svg xmlns="http://www.w3.org/2000/svg" width="34" height="24" viewBox="0 0 34 24">
  <defs>
    <style>
      .cls-1 {
        fill: #fff;
        fill-rule: evenodd;
      }
    </style>
  </defs>
  <path id="形状_6" data-name="形状 6" class="cls-1" d="M115,444v-2a1.736,1.736,0,0,0-2-2H83a1.736,1.736,0,0,0-2,2v2h34Zm-34,3v15a1.736,1.736,0,0,0,2,2h30a1.736,1.736,0,0,0,2-2V447H81Zm3,5H94v3H84v-3Zm14,8H84v-3H98v3Zm14-2h-3v3h-2v-3h-3v-2h3v-1h-3v-2h2l-2-3h3l1,3,1-3h3l-2,3h2v2h-3v1h3v2Z" transform="translate(-81 -440)"/>
</svg>
